{
  "title": "Upload Input",
  "type": "upload",
  "attribute": {
    "optional": {
      "style": "string inline stylesheet",
      "help": "string help-block",
      "readonly": "boolean",
      "disabled": "boolean",
      "acceptedFiles":""
    }
  }
}